module bus/order

go 1.17

require (
	github.com/jackc/pgconn v1.13.0
	github.com/jackc/pgx/v4 v4.17.2
	github.com/joho/godotenv v1.4.0
	github.com/rs/zerolog v1.28.0
	google.golang.org/grpc v1.51.0
	google.golang.org/protobuf v1.27.1
)

require (
	github.com/golang/protobuf v1.5.2 // indirect
	github.com/jackc/chunkreader/v2 v2.0.1 // indirect
	github.com/jackc/pgio v1.0.0 // indirect
	github.com/jackc/pgpassfile v1.0.0 // indirect
	github.com/jackc/pgproto3/v2 v2.3.1 // indirect
	github.com/jackc/pgservicefile v0.0.0-20200714003250-2b9c44734f2b // indirect
	github.com/jackc/pgtype v1.12.0 // indirect
	github.com/jackc/puddle v1.3.0 // indirect
	github.com/klauspost/compress v1.15.9 // indirect
	github.com/mattn/go-colorable v0.1.12 // indirect
	github.com/mattn/go-isatty v0.0.14 // indirect
	github.com/pierrec/lz4/v4 v4.1.15 // indirect
	github.com/segmentio/kafka-go v0.4.38 // indirect
	golang.org/x/crypto v0.0.0-20220722155217-630584e8d5aa // indirect
	golang.org/x/net v0.0.0-20220722155237-a158d28d115b // indirect
	golang.org/x/sync v0.1.0 // indirect
	golang.org/x/sys v0.0.0-20220722155257-8c9f86f7a55f // indirect
	golang.org/x/text v0.4.0 // indirect
	google.golang.org/genproto v0.0.0-20200526211855-cb27e3aa2013 // indirect
)
